"age","sex","children","smoker","region","charges","permanence","copayment"
19,"female",0,"yes","southwest",16884,11,89
18,"male",1,"no","southeast",1725,10,99
28,"male",3,"no","southeast",4449,31,94
33,"male",0,"no","northwest",21984,105,82
32,"male",0,"no","northwest",3866,107,92
31,"female",0,"no","southeast",3756,96,75
46,"female",1,"no","southeast",8240,130,91
37,"female",3,"no","northwest",7281,67,94
37,"male",2,"no","northeast",6406,190,70
60,"female",0,"no","northwest",28923,309,92
25,"male",0,"no","northeast",2721,5,90
62,"female",0,"yes","southeast",27808,529,97
23,"male",0,"no","southwest",1826,5,70
56,"female",0,"no","southeast",11090,383,61
27,"male",0,"yes","southeast",39611,73,69
19,"male",1,"no","southwest",1837,3,94
52,"female",1,"no","northeast",10797,291,74
23,"male",0,"no","northeast",2395,3,90
56,"male",0,"no","southwest",10602,359,99
30,"male",0,"yes","southwest",36837,42,87
60,"female",0,"no","northeast",13228,126,82
30,"female",1,"no","southwest",4149,73,65
18,"male",0,"no","southeast",1137,8,77
34,"female",1,"yes","northeast",37701,176,78
37,"male",2,"no","northwest",6203,159,63
59,"female",3,"no","southeast",14001,326,99
63,"female",0,"no","northeast",14451,410,100
55,"female",2,"no","northwest",12268,215,93
23,"male",1,"no","northwest",2775,23,82
31,"male",2,"yes","southwest",38711,8,92
22,"male",0,"yes","southwest",35585,48,95
18,"female",0,"no","northeast",2198,7,98
19,"female",5,"no","southwest",4687,5,68
63,"male",0,"no","northwest",13770,72,68
28,"male",1,"yes","southwest",51194,42,96
19,"male",0,"no","northwest",1625,10,79
62,"female",3,"no","northwest",15612,353,73
26,"male",0,"no","southwest",2302,68,87
35,"male",1,"yes","northeast",39774,181,61
60,"male",0,"yes","southwest",48173,134,75
24,"female",0,"no","northeast",3046,9,73
31,"female",2,"no","southeast",4949,42,74
41,"male",1,"no","southeast",6272,17,98
37,"female",2,"no","southeast",6313,124,77
38,"male",1,"no","northeast",6079,28,94
55,"male",0,"no","southwest",20630,111,93
18,"female",2,"no","northeast",3393,9,75
28,"female",0,"no","northwest",3556,31,60
60,"female",0,"no","southeast",12629,365,78
36,"male",1,"yes","southeast",38709,99,83
18,"female",0,"no","northeast",2211,6,81
21,"female",2,"no","northwest",3579,8,70
48,"male",1,"yes","southwest",23568,357,75
36,"male",0,"yes","southeast",37742,84,81
40,"female",3,"no","northwest",8059,166,77
58,"male",2,"yes","northwest",47496,361,89
58,"female",2,"no","northeast",13607,257,60
18,"male",2,"yes","southeast",34303,3,75
53,"female",1,"yes","southeast",23244,392,92
34,"female",2,"no","northwest",5989,79,96
43,"male",3,"no","northeast",8606,197,69
25,"male",4,"no","southeast",4504,53,72
64,"male",1,"no","northwest",30166,182,94
28,"female",1,"no","northwest",4133,115,89
20,"female",0,"yes","northwest",14711,11,89
19,"female",0,"no","southwest",1743,20,72
61,"female",2,"no","southwest",14235,436,91
40,"male",1,"no","northwest",6389,141,70
40,"female",0,"no","southeast",5920,76,86
28,"male",3,"yes","southeast",17663,77,71
27,"female",0,"yes","southeast",16577,80,70
31,"male",5,"no","northeast",6799,115,90
53,"female",3,"no","southwest",11741,321,98
58,"male",1,"no","southeast",11946,26,98
44,"male",2,"no","southwest",7726,99,63
57,"male",0,"no","northwest",11356,27,79
29,"female",1,"no","southeast",3947,62,62
21,"male",0,"no","southeast",1532,9,66
22,"female",0,"no","northeast",2755,56,100
41,"female",0,"no","northwest",6571,58,72
31,"male",1,"no","northeast",4441,104,89
45,"female",0,"no","northeast",7935,90,92
22,"male",1,"yes","southeast",37165,31,63
48,"female",4,"no","northwest",11033,272,89
37,"female",2,"yes","southwest",39836,230,92
45,"male",2,"yes","northwest",21098,245,62
57,"female",0,"yes","northwest",43578,255,89
56,"female",0,"no","southwest",11073,317,74
46,"female",0,"no","northwest",8026,265,77
55,"female",0,"no","northwest",11082,155,93
21,"female",0,"no","southeast",2026,3,63
53,"female",1,"no","northwest",10942,169,75
59,"male",3,"yes","northeast",30184,453,74
35,"male",2,"no","northwest",5729,204,96
64,"female",2,"yes","southwest",47291,61,97
28,"female",1,"no","southeast",3766,20,61
54,"female",3,"no","southwest",12105,151,83
55,"male",0,"no","southeast",10226,267,97
56,"male",0,"yes","northeast",22412,373,83
38,"male",0,"yes","southwest",15820,239,81
41,"female",0,"no","southwest",6186,45,83
30,"male",0,"no","northeast",3645,122,89
18,"female",0,"no","northeast",21344,3,60
61,"female",3,"yes","southeast",30942,106,74
34,"female",1,"no","southwest",5003,157,70
20,"male",1,"yes","northwest",17560,4,86
19,"female",1,"no","southwest",2331,15,95
26,"male",2,"no","northwest",3877,17,62
29,"male",0,"no","southeast",2867,91,76
63,"male",0,"yes","southeast",47055,241,79
54,"male",1,"no","northwest",10825,330,88
55,"female",2,"no","southwest",11881,29,72
37,"male",0,"no","southwest",4646,18,94
21,"female",0,"no","northwest",2404,8,91
52,"male",3,"no","northeast",11488,342,61
60,"male",0,"no","northeast",30259,486,79
58,"male",0,"no","southeast",11381,82,88
29,"female",1,"yes","southeast",19107,48,86
49,"female",0,"no","southeast",8601,12,73
37,"female",2,"no","northwest",6686,139,66
44,"male",2,"no","southwest",7740,148,97
18,"male",0,"no","northeast",1705,4,89
20,"female",0,"no","northwest",2257,14,96
44,"male",1,"yes","northeast",39556,138,94
47,"female",3,"no","northwest",10115,176,75
26,"female",0,"no","northeast",3385,59,88
19,"female",0,"yes","southwest",17081,10,64
52,"female",0,"no","southwest",9634,278,80
32,"female",2,"yes","northwest",32734,78,70
38,"male",2,"no","southwest",6082,170,80
59,"female",0,"no","northeast",12815,398,97
61,"female",0,"no","northeast",13616,233,73
53,"female",2,"no","southwest",11163,250,64
19,"male",0,"no","northwest",1632,17,60
20,"female",0,"no","northeast",2457,16,95
22,"female",0,"no","southeast",2155,54,100
19,"male",0,"no","southwest",1261,13,76
22,"male",0,"no","northwest",2045,14,75
54,"female",3,"no","southeast",27322,417,95
22,"female",0,"no","southwest",2166,59,100
34,"male",2,"no","northeast",27375,81,74
26,"male",1,"no","northeast",3490,82,61
34,"male",2,"yes","southeast",18972,136,98
29,"male",2,"no","northwest",18157,126,77
30,"male",3,"yes","northwest",20745,28,91
29,"female",3,"no","southeast",5138,113,72
46,"male",3,"yes","northwest",40720,186,70
51,"female",1,"no","southeast",9877,220,78
53,"female",1,"no","northwest",10959,195,72
19,"male",1,"no","southwest",1842,17,84
35,"male",1,"no","northwest",5125,93,94
48,"male",0,"no","southeast",7789,183,92
32,"female",3,"no","northeast",6334,64,98
42,"female",0,"yes","northeast",19964,73,62
40,"female",1,"no","northeast",7077,34,73
44,"male",0,"no","northwest",6948,85,66
48,"male",0,"yes","southeast",21223,272,97
18,"male",0,"yes","northeast",15518,10,67
30,"male",0,"yes","southeast",36950,44,73
50,"female",3,"no","southeast",19749,343,83
42,"female",0,"yes","northwest",21348,100,60
18,"female",0,"yes","southeast",36149,6,71
54,"male",1,"no","southwest",10450,199,78
32,"female",2,"no","southwest",5152,112,77
37,"male",0,"no","northwest",5028,152,81
47,"male",4,"no","northeast",10407,60,62
20,"female",5,"no","southwest",4830,25,70
32,"female",3,"no","northwest",6128,163,66
19,"female",1,"no","northwest",2719,11,86
27,"male",3,"no","northeast",4827,87,75
63,"male",0,"no","southeast",13405,300,76
49,"male",0,"no","southwest",8116,304,63
18,"male",0,"no","northeast",1694,7,91
35,"female",1,"no","southwest",5246,92,66
24,"female",0,"no","northwest",2855,54,78
63,"female",0,"yes","southwest",48824,390,81
38,"male",2,"no","northwest",6455,159,77
54,"male",1,"no","southwest",10436,346,93
46,"female",2,"no","southwest",8823,126,85
41,"female",3,"no","northeast",8538,37,86
58,"male",0,"no","northwest",11735,131,92
18,"female",0,"no","southeast",1631,12,82
22,"male",3,"no","northeast",4005,12,77
44,"female",0,"no","northwest",7419,291,98
44,"male",2,"no","southeast",7731,53,79
36,"male",3,"yes","northeast",43753,208,78
26,"female",2,"no","southeast",3981,75,67
30,"female",3,"no","southwest",5325,53,74
41,"female",1,"no","southwest",6775,142,63
29,"female",2,"no","northwest",4922,63,99
61,"male",0,"no","southeast",12557,333,88
36,"female",0,"no","southwest",4883,195,87
25,"male",0,"no","southeast",2137,32,92
56,"female",1,"no","northwest",12044,230,75
18,"male",0,"no","southeast",1137,12,91
19,"male",0,"no","northwest",1639,11,81
39,"female",0,"no","southwest",5649,15,72
45,"female",2,"no","southeast",8516,54,74
51,"female",0,"no","northwest",9644,66,96
64,"female",0,"no","northeast",14901,276,90
19,"female",0,"no","northwest",2130,13,94
48,"female",1,"no","southeast",8871,190,97
60,"female",0,"no","northwest",13012,354,67
27,"female",0,"yes","southeast",37133,78,64
46,"male",0,"no","southwest",7147,324,69
28,"female",1,"no","northeast",4337,85,97
59,"male",0,"no","southeast",11743,167,79
35,"male",2,"yes","northeast",20984,19,91
63,"female",0,"no","southwest",13880,31,66
40,"male",1,"no","northeast",6610,58,82
20,"male",1,"no","southwest",1980,20,77
40,"male",4,"no","northwest",8162,5,77
24,"male",2,"no","northwest",3537,19,86
34,"female",1,"no","southeast",5002,54,60
45,"female",2,"no","southwest",8520,170,83
41,"female",2,"no","southwest",7371,249,75
53,"female",0,"no","northwest",10355,383,74
27,"male",0,"no","southeast",2483,55,64
26,"female",1,"no","southeast",3392,42,98
24,"female",0,"no","southeast",25081,58,80
34,"female",1,"no","southwest",5012,110,85
53,"female",0,"no","northeast",10564,388,73
32,"male",3,"no","southwest",5253,162,86
19,"male",0,"yes","southwest",34779,13,83
42,"male",0,"yes","southeast",19515,247,84
55,"male",3,"no","southeast",11987,372,86
28,"male",0,"no","southeast",2689,132,99
58,"female",0,"no","southeast",24227,204,72
41,"female",1,"no","northeast",7358,268,61
47,"male",2,"no","northeast",9225,290,85
42,"female",1,"no","northwest",7443,199,64
59,"female",3,"no","southeast",14001,347,96
19,"female",0,"no","southwest",1727,7,61
59,"male",1,"no","southwest",12333,78,75
39,"male",2,"no","northwest",6710,173,86
40,"female",2,"yes","southeast",19444,120,78
18,"female",0,"no","southeast",1615,10,94
31,"male",2,"no","southeast",4463,135,85
19,"male",0,"yes","northwest",17352,20,92
44,"male",1,"no","southeast",7152,149,80
23,"female",2,"yes","northeast",38511,66,91
33,"female",1,"no","northeast",5354,43,93
55,"female",1,"no","southwest",35160,273,74
40,"male",3,"no","southwest",7196,198,96
63,"female",0,"yes","northeast",29523,490,94
54,"male",0,"no","northwest",24476,270,85
60,"female",0,"no","southeast",12648,195,61
24,"male",0,"no","southeast",1986,29,69
19,"male",1,"no","southwest",1832,3,99
29,"male",1,"no","northeast",4040,84,70
18,"male",2,"yes","northeast",12829,11,98
63,"female",2,"yes","southwest",47305,51,64
54,"male",2,"yes","southeast",44260,131,69
27,"male",3,"no","southwest",4260,99,93
50,"male",0,"yes","northeast",41097,217,62
55,"female",3,"no","northeast",13047,231,81
56,"male",0,"yes","northwest",43921,128,77
38,"female",0,"no","southeast",5400,92,97
51,"male",4,"no","northwest",11520,11,100
19,"male",0,"yes","northwest",33750,3,73
58,"female",0,"no","southwest",11837,204,87
20,"female",1,"yes","southeast",17085,29,64
52,"male",3,"yes","northeast",24869,237,82
19,"male",0,"yes","northwest",36219,15,79
53,"female",3,"no","southeast",20462,144,82
46,"male",3,"yes","southeast",46151,306,86
40,"male",1,"yes","southeast",17179,153,75
59,"female",3,"no","northeast",14590,109,65
45,"male",1,"no","southwest",7441,330,84
49,"male",1,"no","northeast",9282,21,82
18,"male",1,"no","southeast",1719,9,88
50,"male",2,"yes","southwest",42856,45,91
41,"male",2,"no","northwest",7265,103,61
50,"male",1,"no","northeast",9617,390,95
25,"male",0,"no","northwest",2523,74,83
47,"female",2,"no","northeast",9715,183,89
19,"male",2,"no","northwest",2803,2,60
22,"female",0,"no","southwest",2150,22,92
59,"male",2,"no","southeast",12928,102,89
51,"female",1,"no","southeast",9855,71,91
40,"female",1,"yes","northeast",22331,134,91
54,"male",3,"yes","northeast",48549,362,62
30,"male",1,"no","northeast",4237,49,78
55,"female",1,"no","northeast",11879,229,99
52,"female",0,"no","southwest",9625,283,100
46,"male",1,"no","southeast",7742,222,77
46,"female",2,"no","northeast",9432,330,67
63,"female",0,"no","northwest",14256,369,60
59,"female",1,"yes","northeast",47896,392,65
52,"male",3,"no","southeast",25992,111,80
28,"female",0,"no","southwest",3172,33,68
29,"male",1,"no","northeast",20277,116,84
25,"male",2,"yes","southeast",42112,76,96
22,"female",0,"no","southeast",2156,12,61
25,"male",3,"no","southwest",3906,8,87
18,"male",0,"no","northeast",1704,12,88
19,"male",0,"yes","southwest",16297,1,71
47,"male",1,"yes","southeast",21978,250,94
31,"male",3,"yes","northwest",38746,86,86
48,"female",1,"no","northwest",9249,30,81
36,"male",3,"no","northeast",6746,50,89
53,"female",3,"yes","northeast",24873,295,83
56,"female",2,"no","southeast",12265,394,71
28,"female",2,"no","southeast",4349,9,99
57,"female",2,"no","southwest",12646,341,92
29,"male",2,"no","northwest",19442,36,77
28,"female",2,"no","southwest",20177,112,96
30,"female",1,"no","southeast",4151,60,65
58,"male",0,"no","northeast",11944,354,94
41,"female",2,"no","northwest",7749,155,78
50,"male",0,"no","southwest",8444,216,77
19,"female",0,"no","southwest",1737,14,82
43,"male",3,"yes","southeast",42124,40,90
49,"male",0,"no","southeast",8124,52,73
27,"female",0,"yes","southwest",34838,51,79
52,"male",0,"no","northeast",9722,185,66
50,"male",0,"no","northwest",8835,2,84
54,"male",0,"no","northeast",10435,66,75
44,"female",0,"no","northwest",7421,306,99
32,"male",1,"no","northeast",4667,101,61
34,"male",1,"no","northwest",4894,191,87
26,"female",4,"no","northeast",24671,90,84
34,"male",0,"yes","southwest",35491,14,98
57,"male",0,"no","northeast",11566,368,87
29,"male",0,"no","southwest",2866,97,61
40,"male",1,"no","northeast",6600,94,84
27,"female",1,"no","southeast",3561,109,83
45,"male",2,"yes","northwest",42760,5,93
64,"female",1,"yes","southwest",47928,115,73
52,"male",0,"no","southwest",9144,279,97
61,"female",1,"yes","northeast",48517,42,84
52,"male",0,"yes","northwest",24393,89,89
61,"female",0,"no","northwest",13429,84,99
56,"female",0,"no","northeast",11658,397,76
43,"female",2,"no","northeast",19144,307,76
64,"male",0,"no","southwest",13822,59,67
60,"male",0,"no","southeast",12142,297,80
62,"male",1,"no","northwest",13937,91,72
50,"male",1,"yes","northeast",41919,357,76
46,"female",1,"no","southeast",8232,339,76
24,"female",0,"no","southwest",18955,54,68
62,"male",0,"no","northwest",13352,49,86
60,"female",0,"no","northeast",13217,167,63
63,"male",0,"no","northeast",13981,339,63
49,"female",4,"no","southeast",10977,171,86
34,"female",3,"no","southeast",6184,200,92
33,"male",2,"no","southeast",4889,136,72
46,"male",1,"no","northeast",8334,333,95
36,"female",1,"no","southeast",5478,158,77
19,"male",0,"no","northwest",1635,22,97
57,"female",0,"no","northwest",11830,215,85
50,"female",0,"no","southwest",8932,125,71
30,"female",0,"no","southwest",3554,49,65
33,"male",0,"no","northeast",12404,59,98
18,"female",0,"no","southeast",14133,2,76
46,"male",0,"no","southwest",24603,268,98
46,"male",3,"no","southeast",8944,199,80
47,"male",3,"no","northwest",9620,351,93
23,"male",0,"no","southeast",1837,54,86
18,"female",0,"no","southeast",1607,7,77
48,"female",2,"no","northeast",10043,63,75
35,"male",1,"no","southwest",4751,154,67
19,"female",0,"yes","southwest",13844,12,88
21,"female",1,"no","southwest",2597,25,68
21,"female",2,"no","southeast",3180,26,84
49,"female",1,"no","northeast",9778,81,77
56,"female",3,"no","northeast",13430,320,76
42,"female",2,"no","northwest",8017,228,71
44,"male",2,"no","northwest",8116,261,91
18,"male",3,"no","northeast",3481,8,97
61,"female",0,"no","northwest",13415,352,61
57,"female",0,"no","northeast",12029,463,89
42,"female",1,"no","northeast",7639,267,95
26,"male",2,"yes","southwest",36085,27,73
20,"male",0,"no","southeast",1391,6,96
23,"female",0,"yes","northwest",18033,56,60
39,"female",3,"yes","northeast",21659,62,92
24,"male",0,"yes","southeast",38126,59,82
64,"female",3,"no","northwest",16455,364,88
62,"male",1,"no","southeast",27000,402,70
27,"female",2,"yes","northeast",15006,39,89
55,"male",0,"yes","northeast",42303,255,84
55,"male",0,"no","southeast",20781,242,69
35,"female",2,"no","southeast",5846,83,98
44,"male",2,"no","northeast",8302,125,100
19,"male",0,"no","southwest",1261,24,75
58,"female",0,"no","southeast",11856,473,81
50,"male",2,"no","northwest",30284,241,65
26,"female",0,"no","northwest",3176,52,74
24,"female",3,"no","northwest",4618,65,73
48,"male",4,"no","northeast",10736,172,92
19,"female",0,"no","northwest",2138,3,91
48,"male",1,"no","northeast",8964,310,97
49,"male",1,"no","northeast",9290,373,83
46,"female",2,"no","northeast",9411,6,89
46,"male",0,"no","northwest",7526,186,91
43,"female",3,"no","southwest",8522,283,70
21,"male",0,"no","southeast",16586,19,64
64,"male",2,"no","southwest",14988,152,82
18,"female",0,"no","southeast",1631,1,89
51,"female",0,"no","southwest",9264,48,97
47,"male",1,"no","southeast",8083,253,60
64,"female",0,"no","northwest",14692,539,81
49,"male",3,"no","northwest",10269,91,65
31,"male",0,"no","southwest",3260,91,90
52,"female",2,"no","northeast",11396,265,83
33,"female",0,"no","southeast",4185,55,85
47,"female",1,"no","southwest",8539,169,91
38,"male",3,"no","southeast",6652,234,74
32,"male",1,"no","southeast",4074,163,99
19,"male",0,"no","northwest",1621,19,74
44,"female",1,"yes","northeast",19594,107,63
26,"female",2,"yes","northeast",14455,61,62
25,"male",5,"no","southwest",5080,34,90
19,"female",0,"no","northwest",2134,15,70
43,"female",1,"no","southeast",7345,84,96
52,"male",0,"no","southeast",9140,39,96
36,"female",2,"yes","southwest",18608,194,75
64,"male",1,"no","southeast",14418,445,76
63,"female",0,"yes","northwest",28950,113,68
64,"male",0,"yes","southeast",46889,265,80
61,"male",0,"yes","southeast",46599,218,99
40,"male",1,"yes","northeast",39125,226,80
25,"male",0,"no","northeast",2727,96,84
48,"male",2,"no","southwest",8968,331,78
45,"male",5,"no","southeast",9788,198,86
38,"female",1,"no","northeast",6555,209,96
18,"female",0,"no","northeast",7323,8,89
21,"female",1,"no","northeast",3167,35,72
27,"female",3,"no","northwest",18804,87,94
19,"male",0,"no","southwest",23082,9,68
29,"female",2,"no","northwest",4906,46,68
42,"male",0,"no","southwest",5969,300,69
60,"female",0,"no","southwest",12638,155,89
31,"male",1,"no","northwest",4243,129,72
60,"male",3,"no","southeast",13919,54,76
22,"male",0,"no","northeast",2254,39,87
35,"male",3,"no","southwest",5926,145,62
52,"female",5,"no","southeast",12592,6,71
26,"male",0,"no","northeast",2897,25,98
31,"female",1,"no","northwest",4738,46,68
33,"female",0,"yes","southwest",37079,180,92
18,"male",0,"no","southeast",1149,5,63
59,"female",1,"no","southeast",28287,260,66
56,"male",1,"yes","northwest",26109,433,89
45,"female",0,"no","southwest",7345,9,94
60,"male",0,"no","northeast",12730,310,69
56,"female",0,"no","northwest",11454,62,99
40,"female",0,"no","southwest",5910,131,94
35,"male",1,"no","southwest",4762,67,95
39,"male",4,"no","southwest",7512,175,85
30,"male",1,"no","northwest",4032,61,88
24,"male",0,"no","southwest",1969,19,74
20,"male",0,"no","northwest",1769,26,87
32,"male",2,"no","southeast",4686,25,70
59,"male",0,"no","southwest",21797,246,99
55,"female",2,"no","southeast",11881,397,97
57,"female",0,"no","northwest",11840,145,91
56,"male",0,"no","southwest",10601,88,92
40,"female",3,"no","southeast",7682,247,72
49,"female",3,"no","southeast",10381,139,80
42,"male",0,"yes","southwest",22144,45,65
62,"female",2,"no","northeast",15230,163,69
56,"male",0,"no","northeast",11165,465,74
19,"male",0,"no","northwest",1632,20,73
30,"female",1,"yes","southeast",19521,56,87
60,"female",1,"no","southwest",13224,78,63
56,"female",2,"no","northwest",12643,388,76
28,"female",1,"no","northeast",23288,48,84
18,"female",1,"no","southeast",2201,4,87
27,"male",0,"no","southeast",2497,116,69
18,"female",0,"no","northeast",2203,11,61
19,"female",0,"no","southwest",1744,8,96
47,"female",0,"no","northeast",20878,257,93
54,"male",3,"yes","southwest",25382,281,72
61,"male",1,"yes","northwest",28868,294,74
24,"male",0,"yes","northeast",35147,76,90
25,"male",0,"no","northwest",2534,82,94
21,"male",0,"no","southeast",1534,5,80
23,"male",0,"no","southeast",1824,54,73
63,"male",3,"no","northwest",15555,238,91
49,"male",2,"no","southeast",9304,368,74
18,"female",0,"no","southeast",1622,2,79
51,"female",1,"no","southwest",9880,132,78
48,"male",3,"no","southwest",9563,256,84
31,"female",0,"no","northeast",4347,90,84
54,"female",3,"no","northwest",12475,405,89
19,"male",0,"no","southwest",1253,19,87
44,"female",0,"yes","southeast",48885,316,90
53,"male",1,"no","northwest",10461,242,66
19,"female",0,"no","southwest",1748,2,79
61,"female",0,"no","southeast",24513,65,99
18,"female",0,"no","northeast",2196,11,71
61,"male",0,"no","southwest",12574,213,92
21,"male",4,"yes","southwest",17942,27,88
20,"male",0,"no","northeast",1967,12,80
31,"female",2,"no","southwest",4931,75,62
45,"male",2,"no","southwest",8027,318,92
44,"female",2,"no","southeast",8211,73,62
62,"female",0,"no","southwest",13470,308,88
29,"male",0,"yes","southwest",36197,38,73
43,"male",0,"no","northeast",6837,49,64
51,"male",1,"yes","southeast",22218,277,96
19,"male",0,"yes","southeast",32548,2,67
38,"female",1,"no","southeast",5974,98,99
37,"male",3,"no","northwest",6796,214,96
22,"male",1,"no","northwest",2643,18,81
21,"male",2,"no","northwest",3077,42,84
24,"female",0,"no","northeast",3044,19,68
57,"female",0,"no","southwest",11455,76,81
56,"male",1,"no","northeast",11763,420,80
27,"male",0,"no","southeast",2498,16,73
51,"male",0,"no","northeast",9361,254,65
19,"male",0,"no","southwest",1256,7,76
39,"male",1,"yes","southwest",21082,37,79
58,"male",0,"no","southwest",11362,153,80
20,"male",1,"no","southeast",27724,26,73
45,"male",2,"no","northwest",8413,135,76
35,"female",1,"no","southwest",5240,215,81
31,"male",0,"no","northeast",3857,109,61
50,"female",0,"no","northeast",25656,29,90
32,"female",0,"no","southeast",3994,149,60
51,"female",0,"no","northeast",9866,287,77
38,"female",0,"no","southeast",5397,151,97
42,"male",1,"yes","southeast",38245,33,90
18,"female",0,"no","southeast",11482,2,67
19,"female",2,"no","northwest",24059,10,61
51,"female",1,"no","southwest",9861,68,87
46,"male",1,"no","northeast",8342,93,88
18,"male",0,"no","northeast",1708,8,97
57,"male",1,"yes","southeast",48675,328,87
62,"female",0,"no","northeast",14043,496,66
59,"male",2,"no","southeast",12925,47,82
37,"male",0,"no","southeast",19214,148,81
64,"male",0,"no","southeast",13831,280,84
38,"male",1,"no","northeast",6067,30,69
33,"female",3,"no","southwest",5972,176,72
46,"female",2,"no","southwest",8825,324,92
46,"female",1,"no","southeast",8233,23,71
53,"male",0,"no","southeast",27346,54,80
34,"female",3,"no","southwest",6196,176,82
20,"female",2,"no","southeast",3056,22,72
63,"female",0,"no","southeast",13887,119,64
54,"female",0,"yes","southeast",63770,330,82
54,"male",0,"no","northwest",10231,380,77
49,"male",2,"yes","northwest",23807,235,88
28,"male",0,"no","northeast",3268,109,82
54,"female",2,"no","southwest",11538,344,66
25,"female",0,"no","northeast",3213,71,72
43,"female",0,"yes","southeast",45863,268,75
63,"male",0,"no","southwest",13390,382,99
32,"female",0,"no","southeast",3972,89,100
62,"male",0,"no","southwest",12957,185,63
52,"female",2,"no","northwest",11187,17,63
25,"female",0,"no","northeast",17878,44,76
28,"male",2,"no","southwest",3847,108,77
46,"male",1,"no","northeast",8334,107,96
34,"male",0,"no","southeast",3935,95,70
35,"female",3,"yes","northwest",39983,140,82
19,"male",0,"no","northwest",1646,20,82
46,"female",2,"no","northwest",9193,321,98
54,"female",0,"no","northeast",10923,200,69
27,"male",0,"no","southwest",2494,9,91
50,"male",1,"no","southeast",9058,44,60
18,"female",2,"no","southeast",2801,4,96
19,"female",0,"no","northwest",2128,13,69
38,"female",1,"no","northwest",6373,186,64
41,"male",2,"no","northwest",7256,179,71
49,"female",5,"no","southwest",11552,376,97
48,"male",2,"yes","northwest",45702,183,77
31,"female",0,"no","southwest",3761,21,62
18,"female",1,"no","southeast",2219,6,91
30,"female",2,"no","southeast",4753,23,74
62,"female",1,"no","northeast",31620,138,91
57,"female",2,"no","northeast",13224,190,74
58,"female",0,"no","northwest",12222,387,64
22,"male",0,"no","southeast",1664,1,87
31,"female",1,"yes","northeast",58571,89,64
52,"male",1,"no","southwest",9724,265,89
25,"female",0,"no","northeast",3206,88,67
59,"male",1,"no","northeast",12913,64,69
19,"male",0,"no","northwest",1639,18,65
39,"male",2,"no","southeast",6356,238,98
32,"female",1,"no","southeast",17626,127,80
19,"male",0,"no","southwest",1242,21,99
33,"female",1,"no","southeast",4779,131,84
21,"male",3,"no","northeast",3861,34,89
34,"female",1,"yes","northwest",43943,59,76
61,"female",0,"no","northeast",13635,421,75
38,"female",1,"no","southeast",5976,102,67
58,"female",0,"no","southwest",11842,64,69
47,"male",1,"no","northwest",8428,239,90
20,"male",2,"no","southeast",2566,28,65
21,"female",1,"yes","northeast",15359,38,97
41,"male",0,"no","southeast",5709,203,67
46,"female",1,"no","northeast",8823,140,77
42,"female",2,"no","southeast",7640,118,79
34,"female",1,"no","northeast",5594,201,68
43,"male",2,"no","southwest",7441,17,63
52,"female",2,"no","northwest",33471,23,98
18,"female",0,"no","southeast",1633,9,100
51,"male",0,"no","northwest",9174,130,85
56,"female",0,"no","southwest",11070,283,96
64,"female",3,"no","southeast",16085,128,80
19,"female",0,"yes","northwest",17468,20,95
51,"female",0,"no","southeast",9283,264,95
27,"female",0,"no","northeast",3558,106,88
59,"female",0,"yes","northwest",25678,242,73
28,"male",2,"no","northeast",4435,34,63
30,"male",2,"yes","southwest",39241,151,73
47,"female",1,"no","southeast",8547,272,75
38,"female",2,"no","southwest",6571,55,89
18,"female",0,"no","northeast",2207,9,68
34,"female",3,"no","northeast",6753,70,63
20,"female",0,"no","southeast",1880,33,85
47,"female",1,"yes","southeast",42969,168,66
56,"female",0,"no","northeast",11658,94,86
49,"male",2,"yes","southwest",23306,346,90
19,"female",0,"yes","southeast",34439,16,92
55,"female",0,"no","southwest",10713,217,60
30,"male",1,"no","southwest",3659,123,67
37,"male",4,"yes","southwest",40182,63,65
49,"female",1,"no","southwest",9182,319,78
18,"male",0,"yes","northeast",34617,4,84
59,"male",0,"no","northwest",12129,6,95
29,"female",0,"no","northwest",3736,68,69
36,"male",3,"no","northeast",6748,86,79
33,"male",1,"no","southeast",11326,28,85
58,"male",0,"no","southwest",11365,487,81
44,"female",0,"yes","northwest",42983,141,78
53,"male",1,"no","southwest",10085,188,63
24,"male",0,"no","southwest",1977,82,100
29,"female",0,"no","southeast",3366,39,91
40,"male",2,"no","northeast",7173,43,89
51,"male",1,"no","southwest",9391,81,61
64,"male",0,"no","northeast",14410,533,72
19,"female",1,"no","northwest",2709,2,70
35,"female",2,"no","northeast",24915,75,85
39,"male",0,"yes","northeast",20149,160,97
56,"male",4,"no","southeast",12949,246,64
33,"male",5,"no","southwest",6666,111,71
42,"male",3,"yes","northwest",32787,169,66
61,"male",0,"no","northeast",13143,469,89
23,"female",3,"no","northwest",4466,16,92
43,"male",2,"no","southeast",18806,67,78
48,"male",3,"no","northeast",10141,264,66
39,"male",1,"no","northwest",6123,51,75
40,"female",3,"no","northeast",8252,131,83
18,"male",0,"no","northeast",1712,4,86
58,"female",0,"no","northeast",12430,207,74
49,"female",2,"no","southeast",9800,142,94
53,"female",1,"no","southeast",10579,144,95
48,"female",0,"no","southeast",8280,208,80
45,"female",2,"no","southeast",8527,114,99
59,"female",0,"no","southeast",12244,313,82
52,"female",2,"yes","southeast",24667,228,64
26,"female",1,"no","southwest",3410,3,99
27,"male",2,"no","northwest",4058,82,71
48,"female",1,"no","northeast",26392,178,90
57,"female",4,"no","northeast",14394,62,78
37,"male",3,"no","southeast",6435,122,78
57,"female",1,"no","southeast",22192,420,84
32,"female",1,"no","northeast",5148,15,64
18,"male",0,"no","southeast",1136,3,92
64,"female",0,"yes","southeast",27037,20,88
43,"male",2,"yes","southeast",42560,304,82
49,"male",1,"no","southwest",8703,264,94
40,"female",2,"yes","northwest",40003,269,67
62,"male",0,"yes","northeast",45710,21,85
40,"female",1,"no","southeast",6500,133,60
30,"male",3,"no","southeast",4837,141,69
29,"female",0,"no","northeast",3943,69,89
36,"male",0,"no","southeast",4399,123,90
41,"female",0,"no","southeast",6185,144,86
44,"female",2,"yes","southeast",46200,19,68
45,"male",0,"no","northwest",7222,129,99
55,"female",3,"no","southeast",12485,318,76
60,"male",3,"yes","northwest",46130,239,98
56,"male",3,"no","southwest",12363,371,89
49,"female",2,"no","northwest",10156,292,66
21,"female",1,"no","southwest",2585,5,67
19,"male",0,"no","southwest",1242,23,82
39,"male",2,"yes","southwest",40103,1,88
53,"male",0,"no","northwest",9863,157,81
33,"female",1,"no","southwest",4766,3,62
53,"male",2,"no","northeast",11244,140,71
42,"male",2,"no","northeast",7729,219,60
40,"male",0,"no","southeast",5438,151,62
47,"female",1,"no","southwest",26236,118,88
27,"male",1,"yes","southeast",34806,51,76
21,"male",0,"no","northeast",2104,29,90
47,"male",1,"no","southwest",8068,96,94
20,"male",1,"no","northwest",2362,25,87
24,"male",0,"no","northwest",2352,72,71
27,"female",1,"no","southwest",3577,99,89
26,"female",0,"no","northwest",3201,36,89
53,"female",2,"no","northeast",29186,304,79
41,"male",1,"yes","southeast",40273,205,99
56,"male",0,"no","northwest",10976,70,77
23,"female",2,"no","southeast",3500,17,63
21,"female",0,"no","southeast",2020,5,73
50,"female",0,"no","northeast",9541,94,90
53,"male",0,"no","southeast",9504,156,67
34,"female",1,"no","northwest",5385,165,85
47,"female",1,"no","northwest",8930,104,63
33,"female",2,"no","southwest",5375,30,70
51,"female",0,"yes","southeast",44400,296,65
49,"male",3,"no","northwest",10264,248,83
31,"female",3,"no","northeast",6113,153,71
36,"female",0,"no","northeast",5469,63,85
18,"male",1,"no","southeast",1727,1,86
50,"female",2,"no","southeast",10107,348,94
43,"female",2,"no","northwest",8310,21,68
20,"male",0,"no","northeast",1984,10,83
24,"female",0,"no","southwest",2457,58,90
60,"male",0,"no","southwest",12146,176,78
49,"female",1,"no","northwest",9566,367,81
60,"male",1,"no","northwest",13112,344,73
51,"female",2,"no","northwest",10848,169,94
58,"female",0,"no","northwest",12231,265,72
51,"female",0,"no","northeast",9875,296,62
53,"male",3,"no","southwest",11264,400,84
62,"male",0,"no","southwest",12979,354,94
19,"male",0,"no","southwest",1263,9,81
50,"female",1,"no","northeast",10106,367,94
30,"female",3,"yes","southeast",40932,55,80
41,"male",1,"no","northwest",6664,276,95
29,"female",1,"yes","northeast",16657,60,100
18,"female",0,"no","northeast",2217,9,98
41,"female",1,"no","southeast",6781,277,77
35,"male",3,"yes","southeast",19361,31,85
53,"male",1,"no","southwest",10065,220,81
24,"female",3,"no","southwest",4234,58,73
48,"female",1,"no","northeast",9447,125,100
59,"female",3,"no","southwest",14007,366,97
49,"female",1,"no","northwest",9583,45,69
37,"female",0,"yes","southeast",40419,92,88
26,"male",2,"no","southwest",3484,58,61
23,"male",3,"yes","northeast",36189,18,99
29,"male",2,"yes","southwest",44585,53,76
45,"male",2,"no","northeast",8604,140,66
27,"male",0,"yes","southeast",18246,11,65
53,"male",0,"yes","northeast",43254,350,96
31,"female",0,"no","southeast",3757,149,70
50,"male",0,"no","northwest",8827,146,86
50,"female",1,"no","northwest",9910,361,100
34,"male",2,"no","southwest",11737,106,86
19,"male",0,"no","northwest",1627,24,60
47,"female",1,"no","southwest",8556,69,60
28,"male",0,"no","northwest",3062,22,80
37,"female",0,"yes","southeast",19539,178,95
21,"male",0,"no","northwest",1906,8,71
64,"male",0,"no","northwest",14210,80,74
58,"female",0,"no","southeast",11833,45,60
24,"male",4,"no","northeast",17128,61,63
31,"male",2,"no","northeast",5031,64,89
39,"female",3,"no","northeast",7985,240,61
47,"female",0,"yes","southeast",23065,30,80
30,"male",3,"no","northeast",5428,64,93
18,"male",0,"yes","southeast",36307,5,69
22,"female",2,"no","northeast",3925,21,64
23,"male",1,"no","southwest",2416,31,64
33,"male",1,"yes","southwest",19040,70,80
27,"male",0,"no","northeast",3070,105,99
45,"female",2,"no","northeast",9095,99,90
57,"female",0,"no","northwest",11842,383,69
47,"male",1,"no","southwest",8062,75,97
42,"female",1,"no","southwest",7050,233,65
64,"female",0,"no","southwest",14319,38,82
38,"female",2,"no","northwest",6933,36,65
61,"male",3,"no","southwest",27941,436,73
53,"female",2,"no","southwest",11150,237,72
44,"female",0,"no","northeast",12797,259,78
19,"female",0,"yes","northwest",17748,8,94
41,"male",2,"no","northwest",7261,228,65
51,"male",3,"no","southeast",10560,370,78
40,"male",2,"no","northwest",6986,275,81
45,"male",0,"no","northeast",7448,320,60
35,"male",3,"no","southeast",5934,25,96
53,"male",0,"no","northwest",9869,14,94
30,"male",3,"yes","southwest",18259,43,66
18,"male",0,"no","southeast",1146,10,71
51,"male",1,"no","southeast",9386,388,98
50,"female",1,"yes","southwest",24520,233,88
31,"female",1,"no","southeast",4350,63,99
35,"female",3,"no","southwest",6414,170,97
60,"male",0,"no","northeast",12741,370,65
21,"male",0,"no","northwest",1917,32,62
29,"male",3,"no","northeast",5209,81,89
62,"female",0,"no","southeast",13457,355,65
39,"female",0,"no","southeast",5662,95,66
19,"male",0,"no","southwest",1252,23,93
22,"female",0,"no","northeast",2731,11,72
53,"male",0,"yes","southeast",21195,361,68
39,"female",2,"no","northwest",7209,214,72
27,"male",0,"yes","northwest",18310,114,78
30,"male",2,"no","southeast",4266,49,78
30,"female",1,"no","northeast",4719,80,83
58,"female",0,"no","southwest",11848,324,63
33,"male",0,"yes","northeast",17904,187,98
42,"female",1,"no","southeast",7046,107,66
64,"female",0,"no","southeast",14313,27,88
21,"male",1,"no","southwest",2103,12,92
18,"female",0,"yes","southeast",38792,12,64
23,"male",0,"no","southeast",1815,30,73
45,"female",0,"no","northwest",7731,209,99
40,"female",1,"no","northwest",28476,45,86
19,"female",0,"no","northwest",2136,6,98
18,"male",0,"no","southeast",1131,10,67
25,"male",1,"no","northeast",3309,49,80
46,"female",3,"no","southwest",9414,279,89
33,"female",3,"no","northwest",6360,27,96
54,"male",2,"no","southeast",11013,135,80
28,"male",2,"no","northeast",4428,12,60
36,"male",2,"no","southeast",5584,26,78
20,"female",0,"no","southeast",1877,5,69
24,"female",0,"no","northwest",2842,76,76
23,"male",3,"no","southwest",3597,45,63
47,"female",1,"yes","northeast",23401,156,92
33,"female",0,"yes","northwest",55135,129,97
45,"male",1,"no","southwest",7445,204,98
26,"male",0,"no","northwest",2680,10,71
18,"female",0,"no","southeast",1621,11,65
44,"female",2,"no","southeast",8219,79,91
60,"male",0,"no","northwest",12523,505,86
64,"female",2,"no","northeast",16069,155,61
56,"male",2,"yes","southeast",43813,75,89
36,"male",1,"yes","northeast",20773,194,76
41,"male",3,"yes","northeast",39597,113,92
39,"male",1,"no","northwest",6117,3,93
63,"male",0,"no","southwest",13393,498,90
36,"female",0,"no","northwest",5266,210,82
28,"female",2,"no","northwest",4719,105,96
58,"male",0,"no","northwest",11743,291,98
36,"male",1,"no","northwest",5377,202,68
42,"male",2,"no","southeast",7160,76,100
36,"male",0,"no","southwest",4402,175,78
56,"female",0,"no","northeast",11657,93,69
35,"female",2,"no","northeast",6402,69,64
59,"female",0,"no","northwest",12622,287,91
21,"male",0,"no","southwest",1526,39,94
59,"male",0,"no","northeast",12323,50,65
23,"female",2,"yes","southeast",36021,12,92
57,"female",0,"yes","southeast",27533,416,77
53,"male",0,"no","northeast",10072,306,87
60,"female",0,"yes","southeast",45008,40,60
51,"female",1,"no","southwest",9872,307,85
23,"male",1,"no","southeast",2438,67,86
27,"female",0,"no","southwest",2974,110,100
55,"male",0,"no","northwest",10601,266,88
37,"female",0,"yes","northeast",37270,150,81
61,"male",2,"no","northwest",14119,76,67
46,"female",0,"yes","northeast",42111,239,85
53,"female",2,"no","northeast",11729,279,63
49,"female",3,"yes","northeast",24106,74,94
20,"female",0,"no","southwest",1875,29,96
48,"female",0,"yes","southeast",40974,319,69
25,"male",0,"yes","northwest",15817,82,97
25,"female",1,"no","southeast",18218,91,78
57,"male",0,"no","southwest",10965,83,83
37,"female",2,"yes","southwest",46113,11,70
38,"female",3,"no","southwest",7151,72,88
55,"female",2,"no","northwest",12269,365,98
36,"female",0,"no","northeast",5458,69,62
51,"male",0,"no","southwest",8782,328,97
40,"male",2,"no","southwest",6600,25,91
18,"male",0,"no","southeast",1141,3,90
57,"male",1,"no","southwest",11576,478,94
61,"male",0,"no","northeast",13129,3,80
25,"female",3,"no","southwest",4391,84,88
50,"male",0,"no","southwest",8457,305,84
26,"female",1,"no","southeast",3392,54,83
42,"male",0,"no","southeast",5966,33,66
43,"male",1,"no","southwest",6849,279,71
44,"male",3,"no","northeast",8891,42,93
23,"female",0,"no","northwest",2690,6,96
49,"female",1,"no","southwest",26140,378,99
33,"male",5,"no","southeast",6653,13,75
41,"male",1,"no","southwest",6282,106,71
37,"female",2,"no","southwest",6311,107,93
22,"male",3,"no","southwest",3443,54,79
23,"male",1,"no","northwest",2789,18,85
21,"female",0,"no","northeast",2585,26,94
51,"female",3,"yes","northeast",46255,99,72
25,"male",4,"no","northwest",4877,27,83
32,"male",1,"yes","southeast",19719,58,65
57,"male",0,"yes","northeast",27218,444,96
36,"female",0,"no","northwest",5272,20,84
22,"male",0,"no","southwest",1682,59,71
57,"male",1,"no","northwest",11945,72,77
64,"female",0,"yes","northwest",29330,453,94
36,"female",4,"no","southeast",7243,33,91
54,"male",0,"no","northeast",10422,11,68
47,"male",2,"yes","southeast",44202,324,65
62,"male",0,"no","northeast",13555,75,64
61,"female",0,"no","southwest",13063,99,72
43,"female",2,"yes","northeast",19798,97,60
19,"male",1,"no","northwest",2221,12,73
18,"female",0,"no","southeast",1634,3,99
19,"female",0,"no","northwest",2117,6,73
49,"male",0,"no","northeast",8688,375,68
60,"male",0,"yes","southeast",48673,274,92
26,"male",3,"no","northeast",4661,78,72
49,"male",0,"no","southeast",8125,151,63
60,"female",0,"no","southwest",12644,339,81
26,"female",2,"no","northeast",4564,93,77
27,"male",3,"no","northeast",4846,87,99
44,"female",1,"no","southeast",7633,150,71
63,"male",3,"no","southwest",15170,409,82
32,"female",0,"yes","southwest",17496,167,86
22,"male",1,"no","northwest",2639,24,92
18,"male",0,"yes","northeast",33732,1,84
59,"female",3,"no","northwest",14382,393,74
44,"female",1,"no","southwest",7626,262,92
33,"male",2,"no","northwest",5257,181,100
24,"female",0,"no","southeast",2473,24,84
43,"female",0,"yes","northwest",21774,56,79
45,"male",0,"yes","northeast",35069,131,60
61,"female",0,"no","southwest",13041,370,71
35,"female",1,"no","southeast",5245,120,100
62,"female",0,"no","southwest",13451,372,77
62,"female",0,"no","southwest",13462,142,69
38,"male",1,"no","southwest",5488,108,79
34,"male",0,"no","northwest",4320,71,70
43,"male",0,"no","southwest",6250,224,79
50,"male",2,"no","northeast",25333,359,98
19,"female",2,"no","southwest",2913,6,82
57,"female",1,"no","southwest",12032,420,91
62,"female",0,"no","southeast",13470,438,81
41,"male",1,"no","southeast",6289,263,67
26,"male",1,"no","southeast",2927,91,89
39,"female",1,"no","southwest",6238,15,73
46,"male",5,"no","southwest",10096,223,87
45,"female",0,"no","southwest",7348,77,75
32,"male",2,"no","southeast",4673,31,75
59,"female",0,"no","southwest",12233,418,74
44,"male",2,"no","northeast",32108,248,96
39,"female",5,"no","northwest",8965,10,66
18,"male",2,"no","southeast",2304,2,87
53,"male",0,"no","southeast",9487,187,99
18,"male",0,"no","southeast",1121,12,73
50,"female",1,"no","southeast",9549,232,77
18,"female",0,"no","northeast",2217,7,63
19,"male",0,"no","northwest",1628,1,93
62,"male",0,"no","southeast",12982,289,76
56,"female",1,"no","southwest",11674,143,70
42,"male",2,"no","southwest",7160,37,64
37,"male",1,"yes","northeast",39047,185,88
42,"male",0,"no","northwest",6358,108,97
25,"male",3,"yes","southwest",19933,59,61
57,"male",0,"no","northeast",11534,60,85
51,"male",2,"yes","southeast",47462,116,96
30,"female",1,"no","northwest",4527,113,75
44,"male",2,"yes","southwest",38998,299,76
34,"male",1,"yes","northwest",20009,173,71
31,"male",1,"no","southeast",3875,43,84
54,"male",1,"yes","southeast",41999,253,66
24,"male",1,"no","northwest",12609,51,67
43,"male",1,"yes","northeast",41034,274,95
48,"male",1,"no","northwest",28468,368,89
19,"female",1,"no","northwest",2730,8,93
29,"female",0,"no","southwest",3353,128,70
63,"female",1,"no","southeast",14474,262,69
46,"male",3,"no","northeast",9500,315,100
52,"male",2,"no","northwest",26467,27,99
35,"male",1,"no","southwest",4746,198,81
51,"male",2,"yes","northwest",23967,403,65
44,"male",1,"no","northwest",7518,208,79
21,"male",2,"no","northeast",3279,13,82
39,"female",5,"no","southeast",8596,63,90
50,"female",3,"no","southeast",10702,392,84
34,"female",0,"no","northeast",4992,114,97
22,"female",0,"no","northwest",2527,10,96
19,"female",0,"no","southwest",1759,2,81
26,"male",0,"no","southeast",2322,53,69
29,"male",0,"yes","northeast",16138,92,60
48,"male",0,"no","southeast",7804,44,79
26,"male",1,"no","southeast",2902,86,74
45,"female",3,"no","northeast",9704,325,80
36,"female",0,"no","southeast",4889,34,82
54,"male",1,"no","northeast",25517,238,61
34,"male",0,"no","northeast",4500,17,87
31,"male",3,"yes","southwest",19199,141,64
27,"female",1,"no","northeast",16796,27,98
20,"male",5,"no","northeast",4915,20,83
44,"female",1,"no","southwest",7624,291,75
43,"male",3,"no","northwest",8410,197,66
45,"female",1,"no","northwest",28340,11,88
34,"male",0,"no","northeast",4518,3,97
24,"female",0,"yes","northeast",14571,76,82
26,"female",1,"no","southwest",3378,89,97
38,"female",2,"no","northeast",7144,134,75
50,"female",2,"no","southwest",10118,248,97
38,"male",1,"no","southeast",5484,150,94
27,"female",3,"yes","northwest",16420,119,78
39,"female",3,"no","northeast",7986,145,78
39,"female",3,"no","southwest",7418,191,87
63,"female",0,"no","southeast",13887,410,82
33,"female",3,"no","northeast",6551,104,92
36,"female",0,"no","northwest",5267,108,90
30,"male",2,"yes","northwest",17361,37,78
24,"male",0,"yes","southwest",34472,38,94
24,"male",0,"no","southwest",1972,70,100
48,"male",0,"no","southwest",21232,185,68
47,"male",1,"no","northeast",8627,154,96
29,"male",2,"no","northwest",4433,63,99
28,"male",2,"no","northeast",4438,56,68
47,"male",3,"yes","northwest",24915,158,64
25,"male",2,"no","northeast",23241,21,79
51,"male",1,"no","northeast",9957,264,76
48,"female",0,"no","southwest",8269,130,89
43,"male",2,"yes","southeast",18767,28,73
61,"female",4,"no","southeast",36580,36,100
48,"male",1,"no","northwest",8765,107,65
38,"female",0,"no","southwest",5383,219,91
59,"male",0,"no","northwest",12124,25,73
19,"female",1,"no","northwest",2709,7,88
26,"female",2,"no","southwest",3987,97,81
54,"female",3,"no","northwest",12495,93,96
21,"female",2,"no","northwest",26018,18,69
51,"male",0,"no","southwest",8798,3,89
22,"female",3,"yes","southeast",35595,27,75
47,"male",1,"yes","southeast",42211,330,63
18,"male",1,"no","southeast",1711,6,86
47,"female",1,"no","southeast",8569,317,73
21,"female",0,"no","southwest",2020,45,84
19,"male",1,"yes","northwest",16450,9,68
23,"male",0,"no","northwest",21595,19,96
54,"male",0,"no","southwest",9850,44,84
37,"female",2,"no","northeast",6877,104,68
46,"female",1,"yes","northwest",21677,68,72
55,"female",0,"yes","southeast",44423,276,66
30,"female",0,"no","northeast",4137,25,72
18,"male",0,"yes","northeast",13747,1,87
61,"male",0,"no","northwest",12950,12,88
54,"female",3,"no","southwest",12094,382,84
22,"male",2,"yes","southeast",37484,12,75
45,"female",1,"yes","northwest",39725,254,87
22,"male",0,"no","northeast",2250,12,77
19,"male",2,"no","northwest",22493,21,98
35,"female",0,"yes","northwest",20234,57,62
18,"male",0,"no","northeast",1704,6,70
20,"male",0,"yes","northeast",33475,35,67
28,"female",0,"no","southwest",3161,109,83
55,"male",1,"no","northeast",11394,370,60
43,"female",2,"yes","northwest",21880,311,67
43,"female",0,"no","northeast",7325,250,89
22,"male",1,"yes","southeast",44501,45,67
25,"female",1,"no","northwest",3594,29,60
49,"male",0,"yes","southwest",39727,126,67
44,"female",1,"no","northwest",8023,248,94
64,"male",0,"no","northeast",14394,269,92
49,"male",1,"no","northeast",9288,232,94
47,"male",3,"yes","southwest",25309,196,74
27,"female",0,"no","northwest",3353,73,100
55,"male",0,"no","northwest",10594,184,66
48,"female",0,"no","southwest",8277,359,67
45,"female",0,"no","southeast",17929,253,76
24,"female",0,"no","southeast",2480,26,94
32,"male",1,"no","northwest",4462,22,63
24,"male",0,"no","southeast",1981,9,95
57,"male",1,"no","southeast",11554,325,64
59,"male",1,"yes","southeast",48970,306,77
36,"male",3,"no","northwest",6548,64,82
29,"female",4,"no","southwest",5708,141,78
42,"female",1,"no","southwest",7045,139,92
48,"male",2,"no","southeast",8978,258,86
39,"male",0,"no","northeast",5757,129,66
63,"male",1,"no","northwest",14349,516,75
54,"female",1,"no","southeast",10928,405,88
37,"male",1,"yes","southeast",39871,147,92
63,"male",0,"no","northeast",13974,448,62
21,"male",0,"no","northwest",1909,2,60
54,"female",2,"no","northeast",12096,289,71
60,"female",0,"no","northeast",13204,79,96
32,"female",1,"no","southeast",4562,124,67
47,"female",1,"no","southwest",8551,184,60
21,"male",0,"no","northeast",2102,46,100
28,"male",0,"yes","southeast",34672,110,75
63,"male",3,"no","southeast",15161,360,79
18,"male",2,"no","southeast",11884,1,100
32,"male",1,"no","northwest",4454,176,87
38,"male",1,"no","northwest",5855,47,85
32,"male",1,"no","southwest",4076,92,63
62,"female",2,"no","northwest",15019,445,100
39,"female",5,"yes","southwest",19023,191,90
55,"male",0,"no","northeast",10796,344,90
57,"male",0,"no","northwest",11353,266,62
52,"male",1,"no","southeast",9748,201,87
56,"male",0,"no","southwest",10577,333,65
47,"male",0,"yes","southeast",41676,305,61
55,"female",0,"no","northeast",11286,373,76
23,"male",3,"no","southwest",3591,62,88
22,"female",0,"yes","northwest",33907,30,67
50,"female",4,"no","southwest",11299,256,67
18,"female",4,"no","northeast",4561,5,60
51,"female",2,"yes","northeast",44641,87,62
22,"male",0,"no","southeast",1674,12,80
52,"female",0,"no","northeast",23045,273,68
25,"female",1,"no","southeast",3227,5,91
33,"female",2,"yes","northeast",16776,166,88
53,"male",3,"no","southwest",11253,160,90
29,"male",1,"no","southeast",3471,136,73
58,"male",0,"no","southeast",11363,369,87
37,"male",0,"no","southwest",20420,130,74
54,"female",0,"no","southeast",10338,349,92
49,"female",0,"no","northwest",8988,131,100
50,"female",2,"no","northwest",10493,286,62
26,"male",1,"no","southwest",2904,3,64
45,"male",3,"no","southeast",8605,195,80
54,"female",1,"no","northeast",11512,366,78
38,"male",3,"yes","southeast",41949,172,96
48,"female",3,"yes","southeast",24180,59,64
28,"female",3,"no","northwest",5312,66,86
23,"male",0,"no","northeast",2396,46,83
55,"male",1,"no","southeast",10807,204,62
41,"male",5,"no","northeast",9222,14,65
25,"male",2,"yes","southeast",36124,25,60
33,"male",1,"yes","southeast",38282,153,77
30,"female",3,"no","northwest",5693,119,99
23,"female",0,"yes","southwest",34166,31,78
46,"male",2,"no","southeast",8347,19,70
53,"female",3,"yes","northwest",46661,229,91
27,"female",1,"no","northeast",18903,46,75
23,"female",1,"yes","northeast",40904,58,95
63,"female",0,"no","northwest",14254,450,76
55,"male",0,"no","southwest",10214,435,74
35,"female",2,"no","southeast",5836,125,65
34,"male",1,"no","southwest",14358,173,67
19,"female",0,"no","southwest",1728,20,70
39,"female",5,"no","southeast",8582,232,85
27,"male",2,"no","southwest",3693,16,76
57,"male",0,"no","northeast",20709,352,70
52,"female",0,"no","northwest",9991,417,74
28,"male",0,"no","northwest",19673,35,65
50,"female",3,"no","northwest",11085,361,100
44,"female",1,"no","southwest",7623,307,94
26,"female",0,"no","northwest",3176,73,72
33,"male",0,"no","southeast",3704,79,93
19,"female",0,"yes","northwest",36898,13,82
50,"male",1,"no","southeast",9048,134,71
41,"female",3,"no","southwest",7954,11,79
52,"female",0,"no","southeast",27117,167,81
39,"male",2,"no","southeast",6338,197,88
50,"male",2,"no","southwest",9630,179,67
52,"male",3,"no","northwest",11289,2,76
60,"male",0,"yes","southwest",52590,363,97
20,"female",0,"no","northwest",2261,1,92
55,"male",1,"no","southwest",10791,193,81
42,"male",0,"no","southwest",5979,296,99
18,"female",0,"no","northeast",2203,7,82
58,"female",0,"no","northwest",12235,358,82
43,"female",3,"yes","southeast",40941,80,64
35,"female",1,"no","northwest",5630,15,97
48,"female",4,"no","northwest",11015,120,60
36,"female",3,"no","northeast",7228,155,71
19,"male",0,"yes","southeast",39722,15,78
23,"female",2,"no","northwest",14426,6,90
20,"female",0,"no","northeast",2459,27,83
32,"female",0,"no","southwest",3989,42,75
43,"female",1,"no","northwest",7727,124,75
34,"male",2,"no","southeast",5124,26,76
30,"male",1,"no","southeast",18963,70,95
18,"female",0,"no","northeast",2200,5,79
41,"female",1,"no","northwest",7153,9,86
35,"female",0,"no","northeast",5227,201,68
57,"male",0,"no","southeast",10982,446,98
29,"female",2,"no","southwest",4529,100,60
32,"male",2,"no","southwest",4670,19,83
37,"female",1,"no","northwest",6112,42,87
18,"male",1,"yes","northeast",17178,4,93
43,"female",2,"yes","southwest",22478,225,73
56,"female",0,"no","southeast",11093,196,60
38,"male",2,"no","northwest",6457,28,77
29,"male",2,"no","northwest",4433,29,80
22,"female",0,"no","southwest",2154,46,61
52,"female",1,"yes","northwest",23887,173,70
40,"female",1,"no","southwest",6496,143,88
23,"female",0,"no","northeast",2899,32,85
31,"male",0,"yes","southeast",19350,67,71
42,"female",1,"no","northeast",7650,208,99
24,"female",0,"no","northwest",2850,76,96
25,"female",0,"no","southwest",2632,33,62
48,"female",1,"no","northeast",9447,100,94
23,"female",1,"yes","southeast",18328,55,91
45,"male",2,"no","northeast",8603,270,73
20,"male",3,"yes","northwest",37465,20,74
62,"female",0,"no","northwest",13844,24,81
43,"female",1,"yes","northeast",21771,24,72
23,"female",0,"no","southwest",13126,5,80
31,"female",2,"no","northwest",5327,125,68
41,"female",1,"no","northeast",13725,64,89
58,"female",1,"no","northeast",13019,335,60
48,"female",0,"no","northwest",8671,63,64
31,"female",0,"no","northwest",4134,66,74
19,"female",3,"no","northwest",18838,18,60
19,"female",0,"yes","northwest",33307,6,73
41,"male",0,"no","southeast",5699,28,89
40,"male",1,"no","northwest",6393,204,79
31,"female",2,"no","southwest",4934,18,74
37,"male",2,"no","northwest",6198,205,93
46,"male",2,"no","northwest",8733,90,98
22,"male",0,"no","northwest",2055,40,80
51,"male",1,"no","northeast",9964,328,71
18,"female",3,"yes","southeast",18223,5,85
35,"male",1,"no","northwest",5116,35,60
59,"female",2,"no","southwest",36910,27,78
36,"male",2,"yes","southwest",38415,91,89
37,"female",1,"yes","northeast",20296,104,83
59,"male",1,"no","southwest",12347,402,83
36,"male",1,"no","northwest",5373,9,99
39,"male",2,"no","southeast",23563,24,93
18,"male",0,"no","northeast",1702,6,94
52,"female",2,"no","southwest",10806,140,75
27,"female",1,"no","northwest",3956,76,85
18,"male",0,"no","northeast",12890,6,88
40,"male",0,"no","southeast",5415,97,92
29,"male",2,"no","southeast",4058,122,60
46,"female",1,"yes","southwest",41661,233,90
38,"female",3,"no","northwest",7537,162,68
30,"female",1,"no","northeast",4718,10,100
40,"male",2,"no","southeast",6593,128,84
50,"male",0,"no","southeast",8442,386,92
20,"female",0,"yes","southeast",26125,6,99
41,"male",1,"no","northeast",6858,117,64
33,"female",1,"no","southeast",4795,77,70
38,"male",2,"no","northeast",6640,108,81
42,"male",2,"no","southeast",7162,81,71
56,"male",0,"no","southeast",10594,226,61
58,"male",0,"no","northeast",11938,430,63
52,"male",3,"yes","northwest",60021,151,61
20,"female",0,"yes","southwest",20167,20,92
54,"female",3,"no","northwest",12479,33,71
58,"male",0,"no","southwest",11345,247,84
45,"female",2,"no","southeast",8515,277,97
26,"male",0,"no","northwest",2699,28,84
63,"female",0,"no","northeast",14449,52,63
58,"female",0,"no","northwest",12224,198,75
37,"male",3,"no","northeast",6985,239,86
25,"female",1,"no","southeast",3238,94,99
52,"male",2,"yes","southeast",47269,277,66
64,"male",2,"yes","southeast",49577,405,77
22,"female",3,"no","northwest",4296,32,95
28,"female",0,"no","southeast",3171,13,86
18,"male",0,"no","southeast",1135,8,66
28,"male",5,"no","southwest",5615,41,80
45,"female",3,"no","southwest",9101,319,66
33,"male",4,"no","southwest",6059,67,97
18,"female",0,"no","southeast",1633,12,83
32,"male",1,"yes","northeast",37607,125,94
24,"male",0,"yes","northeast",18648,9,80
19,"male",0,"no","southwest",1241,19,82
20,"male",0,"yes","southwest",16232,31,87
40,"female",4,"no","southwest",15828,193,62
34,"female",0,"no","southeast",4415,79,74
42,"female",0,"no","southwest",6474,215,70
51,"female",3,"no","northwest",11436,210,96
54,"female",1,"no","northwest",11305,222,86
55,"male",3,"no","northwest",30063,105,71
52,"female",0,"no","northeast",10197,320,86
32,"female",0,"no","northeast",4544,15,72
28,"male",1,"no","southwest",3277,13,80
41,"female",1,"no","southeast",6770,245,75
43,"female",1,"no","southwest",7337,295,75
49,"female",2,"no","northeast",10370,203,100
64,"male",0,"yes","southeast",26926,406,85
55,"female",0,"no","southwest",10704,39,100
24,"male",0,"yes","northeast",34254,74,70
20,"female",0,"no","southwest",1880,6,71
45,"male",3,"no","southwest",8615,259,88
26,"male",1,"no","northwest",3292,93,91
25,"female",0,"no","northwest",3021,78,100
43,"male",5,"no","southeast",14478,165,67
35,"male",1,"no","southeast",4747,197,91
26,"male",0,"yes","southeast",17043,37,99
57,"male",0,"no","southwest",10959,83,62
22,"female",0,"no","northeast",2741,55,98
32,"female",0,"no","northwest",4357,12,76
39,"male",1,"yes","northeast",22462,110,64
25,"female",2,"no","northwest",4189,26,78
48,"female",0,"no","southeast",8283,127,71
47,"female",2,"yes","northwest",24535,138,79
18,"female",0,"yes","northeast",14283,11,70
18,"male",1,"no","southeast",1720,9,81
61,"male",1,"yes","southwest",47403,320,70
47,"female",0,"no","northeast",8534,274,65
28,"female",0,"no","northeast",3732,15,98
36,"female",1,"no","southwest",5472,227,74
20,"male",2,"yes","southwest",38344,17,74
44,"male",1,"no","southeast",7147,195,85
38,"female",2,"no","northeast",7133,203,77
19,"male",0,"yes","southwest",34828,16,86
21,"male",0,"no","southeast",1515,48,89
46,"male",3,"no","northwest",9301,202,65
58,"male",0,"no","northeast",11931,62,72
20,"male",1,"no","southwest",1964,7,66
18,"male",0,"no","northeast",1708,9,92
28,"female",2,"no","southeast",4340,107,69
33,"male",2,"no","northwest",5261,65,78
19,"female",1,"no","northwest",2710,18,79
45,"male",0,"yes","southeast",62592,292,77
62,"male",3,"yes","northwest",46718,327,73
25,"female",1,"no","southwest",3208,41,67
43,"male",0,"yes","southwest",37829,214,75
42,"male",2,"yes","northeast",21259,235,74
24,"female",0,"no","southeast",2464,15,81
29,"female",0,"yes","northeast",16115,133,96
32,"male",4,"yes","northwest",21472,61,87
25,"female",0,"yes","southwest",33900,69,81
41,"male",2,"no","southwest",6875,119,100
42,"male",1,"no","northwest",6940,131,85
33,"female",0,"no","northwest",4571,184,69
34,"male",1,"no","southwest",4536,54,97
19,"female",2,"yes","southwest",36397,13,87
30,"female",3,"yes","northwest",18765,133,69
18,"male",1,"no","northeast",11272,7,68
19,"female",0,"no","southwest",1731,4,84
18,"male",0,"no","southeast",1163,1,80
35,"male",4,"no","northeast",19496,177,64
39,"female",2,"no","northwest",7201,217,71
31,"male",3,"no","northwest",5425,6,82
62,"male",0,"yes","northeast",28101,166,89
62,"male",0,"no","southeast",12981,178,83
42,"female",2,"yes","southeast",43896,298,61
31,"male",1,"no","northwest",4239,107,65
61,"male",0,"no","northeast",13143,22,77
42,"female",0,"no","northeast",7050,34,63
51,"male",1,"no","southeast",9377,32,66
23,"female",2,"no","northeast",22395,56,78
52,"male",2,"no","southwest",10325,125,65
57,"female",2,"no","southeast",12629,212,63
23,"female",0,"no","southwest",10795,6,85
52,"female",3,"no","southwest",11411,383,95
50,"male",3,"no","northwest",10600,344,85
18,"female",0,"no","northeast",2205,9,71
18,"female",0,"no","southeast",1629,2,100
21,"female",0,"no","southwest",2007,44,80
61,"female",0,"yes","northwest",29141,444,90
